[
    {
        "id": 1,
        "title" : "experiment 1 angular service",
        "text" : "..."
    },
    {
        "id": 2,
        "title" : "experiment 2 angular service",
        "text" : "..."
    },
    {
        "id": 3,
        "title" : "experiment 3 angular service",
        "text" : "..."
    },
    {
        "id": 4,
        "title" : "experiment 4 angular service",
        "text" : "..."
    },
    {
        "id": 5,
        "title" : "experiment 5 angular service",
        "text" : "..."
    },
    {
        "id": 6,
        "title" : "experiment 6 angular service",
        "text" : "..."
    }
]